<?xml version="1.0" encoding="UTF-8" standalone="no"?>
<svg style="enable-background:new" xmlns="http://www.w3.org/2000/svg" height="1024" width="1024" version="1.1" xmlns:xlink="http://www.w3.org/1999/xlink" viewBox="0 0 1024 1024">
 <circle cx="578.8" transform="rotate(90)" cy="-507.7" r="106" fill="#ec2259"/>
 <circle transform="rotate(90)" cy="-505.7" cx="445.5" r="106" fill="#0e8cba"/>
</svg>
