<?xml version="1.0" encoding="UTF-8" standalone="no"?>
<svg xmlns="http://www.w3.org/2000/svg" height="479.4" width="479.4" version="1.1" viewBox="0 0 479.44232 479.44232">
  <path d="m117.4 444.7a238.7 238.7 0 0 0 35.95 17.28 238.7 238.7 0 0 1 5.076 -25.51 238.7 238.7 0 0 1 81.15 -124 238.7 238.7 0 0 0 -62.68 -36.39 238.7 238.7 0 0 1 -66.85 132.5 238.7 238.7 0 0 1 -19.41 17.27 238.7 238.7 0 0 0 26.75 18.9z" stroke="#111" fill="#f89b0f" stroke-width="2"/>
</svg>
