<?xml version="1.0" encoding="UTF-8" standalone="no"?>
<svg xmlns="http://www.w3.org/2000/svg" height="479.4" width="479.4" version="1.1" viewBox="0 0 479.44232 479.44232">
  <path d="m153.3 461.9a238.7 238.7 0 0 0 148.2 8.331 238.7 238.7 0 0 0 24.79 -8.422 238.7 238.7 0 0 0 -5.25 -25.42 238.7 238.7 0 0 0 -81.32 -124.2 238.7 238.7 0 0 0 -81.32 124.2 238.7 238.7 0 0 0 -5.076 25.51z" stroke="#111" fill="#f5d412" stroke-width="2"/>
</svg>
