<?xml version="1.0" encoding="UTF-8" standalone="no"?>
<svg xmlns="http://www.w3.org/2000/svg" height="479.4" width="479.4" version="1.1" viewBox="0 0 479.44232 479.44232">
    <path stroke-linejoin="round" d="m302.6 203.4a238.7 238.7 0 0 1 -62.85 -36.27 238.7 238.7 0 0 1 -62.81 36.28 238.7 238.7 0 0 1 0.008 72.54 238.7 238.7 0 0 1 62.82 36.26 238.7 238.7 0 0 1 63.02 -36.32 238.7 238.7 0 0 1 -0.1821 -72.48z" fill="#888888"/><circle fill="#888888" stroke="#111" cy="239.72116" stroke-width="2" r="57.72" cx="239.72116"/>
</svg>
