<?xml version="1.0" encoding="UTF-8" standalone="no"?>
<svg xmlns="http://www.w3.org/2000/svg" height="479.4" width="479.4" version="1.1" viewBox="0 0 479.44232 479.44232">
  <path d="m1.061 236.2a238.7 238.7 0 0 0 3.014 39.78 238.7 238.7 0 0 1 24.63 -8.359 238.7 238.7 0 0 1 148 8.262 238.7 238.7 0 0 0 0.1758 -72.48 238.7 238.7 0 0 1 -148.2 8.354 238.7 238.7 0 0 1 -24.66 -8.172 238.7 238.7 0 0 0 -2.988 32.62z" stroke="#111" fill="#0e8cba" stroke-width="2"/>
</svg>
