<?xml version="1.0" encoding="UTF-8" standalone="no"?>
<svg xmlns="http://www.w3.org/2000/svg" height="479.4" width="479.4" version="1.1" viewBox="0 0 479.44232 479.44232">
  <path d="m90.47 53.79a238.7 238.7 0 0 0 -81.3 124.1 238.7 238.7 0 0 0 -5.101 25.7 238.7 238.7 0 0 0 24.64 8.2 238.7 238.7 0 0 0 148.2 -8.4 238.7 238.7 0 0 0 -66.9 -132.5 238.7 238.7 0 0 0 -19.53 -17.11z" stroke="#111" fill="#ec2259" stroke-width="2"/>
</svg>
