<?xml version="1.0" encoding="UTF-8" standalone="no"?>
<svg xmlns="http://www.w3.org/2000/svg" height="479.4" width="479.4" version="1.1" viewBox="0 0 479.44232 479.44232">
  <path d="m475.4 275.8a238.7 238.7 0 0 0 -24.66 -8.172 238.7 238.7 0 0 0 -148.2 8.354 238.7 238.7 0 0 0 66.85 132.5 238.7 238.7 0 0 0 19.69 17.26 238.7 238.7 0 0 0 19.39 -17.26 238.7 238.7 0 0 0 66.9 -132.7z" stroke="#111" fill="#3eb34f" stroke-width="2"/>
</svg>
