<?xml version="1.0" encoding="UTF-8" standalone="no"?>
<svg xmlns="http://www.w3.org/2000/svg" height="479.4" width="479.4" version="1.1" viewBox="0 0 479.44232 479.44232">

  <path d="m123.4 31.29a238.7 238.7 0 0 0 -32.94 22.5 238.7 238.7 0 0 1 19.55 17.15 238.7 238.7 0 0 1 66.84 132.3 238.7 238.7 0 0 0 62.86 -36.09 238.7 238.7 0 0 1 -11.8 -10.45 238.7 238.7 0 0 1 -0.0158 -0.0157 238.7 238.7 0 0 1 -8.664 -8.187 238.7 238.7 0 0 1 -8.068 -8.729 238.7 238.7 0 0 1 -0.0112 -0.0116 238.7 238.7 0 0 1 -7.813 -9.021 238.7 238.7 0 0 1 -0.00097 -0.002 238.7 238.7 0 0 1 -7.163 -9.5 238.7 238.7 0 0 1 -6.888 -9.778 238.7 238.7 0 0 1 -6.169 -10.15 238.7 238.7 0 0 1 -0.006 -0.0101 238.7 238.7 0 0 1 -5.868 -10.4 238.7 238.7 0 0 1 -5.145 -10.76 238.7 238.7 0 0 1 -0.005 -0.01282 238.7 238.7 0 0 1 -4.784 -10.9 238.7 238.7 0 0 1 -4.048 -11.23 238.7 238.7 0 0 1 -0.003 -0.0094 238.7 238.7 0 0 1 -4.862 -14.98 238.7 238.7 0 0 1 -2.706 -12.83 238.7 238.7 0 0 1 -2.545 -12.61 238.7 238.7 0 0 0 -29.74 13.72z" stroke="#111" fill="#f5d412" stroke-width="2"/>

</svg>
